ESG Project
…
# countries <- c("United States", "Canada", "Somalia", "Germany", "Spain", "France", "United Arab Emirates", "Haiti", "Brazil", "India", "Australia", "South Africa", "Japan", "Mexico", "Iceland", "Cuba")
esg %>%
  filter(`Country Name` %in% countries) -> esg_countries
esg_countries

## # A tibble: 12,931 x 67
##    `Country Name` `Country Code` Variable   `Variable code` `1960` `1961` `1962`
##    <chr>          <chr>          <chr>      <chr>            <dbl>  <dbl>  <dbl>
##  1 Afghanistan    AFG            Access to~ EG.CFT.ACCS.ZS      NA   NA     NA  
##  2 Afghanistan    AFG            Access to~ EG.ELC.ACCS.ZS      NA   NA     NA  
##  3 Afghanistan    AFG            Adjusted ~ NY.ADJ.DRES.GN~     NA   NA     NA  
##  4 Afghanistan    AFG            Adjusted ~ NY.ADJ.DFOR.GN~     NA   NA     NA  
##  5 Afghanistan    AFG            Agricultu~ AG.LND.AGRI.ZS      NA   57.7   57.8
##  6 Afghanistan    AFG            Agricultu~ NV.AGR.TOTL.ZS      NA   NA     NA  
##  7 Afghanistan    AFG            Annual fr~ ER.H2O.FWTL.ZS      NA   NA     NA  
##  8 Afghanistan    AFG            Annualize~ SI.SPR.PCAP.ZG      NA   NA     NA  
##  9 Afghanistan    AFG            Cause of ~ SH.DTH.COMM.ZS      NA   NA     NA  
## 10 Afghanistan    AFG            Children ~ SL.TLF.0714.ZS      NA   NA     NA  
## # ... with 12,921 more rows, and 60 more variables: 1963 <dbl>, 1964 <dbl>,
## #   1965 <dbl>, 1966 <dbl>, 1967 <dbl>, 1968 <dbl>, 1969 <dbl>, 1970 <dbl>,
## #   1971 <dbl>, 1972 <dbl>, 1973 <dbl>, 1974 <dbl>, 1975 <dbl>, 1976 <dbl>,
## #   1977 <dbl>, 1978 <dbl>, 1979 <dbl>, 1980 <dbl>, 1981 <dbl>, 1982 <dbl>,
## #   1983 <dbl>, 1984 <dbl>, 1985 <dbl>, 1986 <dbl>, 1987 <dbl>, 1988 <dbl>,
## #   1989 <dbl>, 1990 <dbl>, 1991 <dbl>, 1992 <dbl>, 1993 <dbl>, 1994 <dbl>,
## #   1995 <dbl>, 1996 <dbl>, 1997 <dbl>, 1998 <dbl>, 1999 <dbl>, 2000 <dbl>, ...
…
